<svg width="43" height="40" viewBox="0 0 43 40" fill="none" xmlns="http://www.w3.org/2000/svg">
<path d="M0.0713463 15.1141C0.204689 14.7333 0.44722 14.3988 0.769527 14.1512C1.09184 13.9036 1.48008 13.7535 1.88716 13.7192L13.9011 11.9911L19.2852 1.22721C19.4581 0.875205 19.728 0.578339 20.0641 0.370621C20.4002 0.162903 20.7888 0.0527344 21.1855 0.0527344C21.5821 0.0527344 21.9707 0.162903 22.3068 0.370621C22.6429 0.578339 22.9128 0.875205 23.0857 1.22721L28.4698 11.9703L40.4838 13.7192C40.8745 13.774 41.2419 13.9357 41.5442 14.1859C41.8465 14.4361 42.0716 14.7649 42.194 15.135C42.306 15.4966 42.3161 15.8814 42.2231 16.2482C42.1301 16.615 41.9376 16.9499 41.6662 17.217L32.946 25.545L35.0574 37.3707C35.1328 37.761 35.0933 38.1645 34.9437 38.5334C34.794 38.9023 34.5405 39.2213 34.2129 39.4527C33.8936 39.6778 33.517 39.8106 33.1254 39.8364C32.7338 39.8621 32.3426 39.7797 31.9959 39.5984L21.1855 34.0395L10.4173 39.6193C10.1209 39.7841 9.78625 39.8702 9.44602 39.8691C8.99876 39.8707 8.56256 39.7322 8.20028 39.4735C7.87271 39.2421 7.61912 38.9231 7.46946 38.5542C7.31981 38.1853 7.28034 37.7819 7.35572 37.3915L9.46713 25.5658L0.746998 17.2378C0.44215 16.9831 0.216839 16.6484 0.0972366 16.2725C-0.0223618 15.8965 -0.0313377 15.4949 0.0713463 15.1141ZM13.0565 23.4421C13.3041 23.6783 13.4894 23.9706 13.5961 24.2936C13.7029 24.6166 13.7278 24.9604 13.6688 25.2951L12.1486 34.0187L20.0875 29.8547C20.393 29.6943 20.7338 29.6104 21.0799 29.6104C21.426 29.6104 21.7668 29.6943 22.0723 29.8547L30.0112 34.0187L28.4909 25.2951C28.432 24.9604 28.4569 24.6166 28.5637 24.2936C28.6704 23.9706 28.8556 23.6783 29.1033 23.4421L35.4375 17.1961L26.5485 15.9261C26.2064 15.8792 25.8813 15.7503 25.6015 15.5506C25.3217 15.351 25.0959 15.0867 24.9438 14.781L21.1855 6.84861L17.216 14.8018C17.0639 15.1076 16.8381 15.3718 16.5583 15.5715C16.2785 15.7711 15.9534 15.9 15.6113 15.9469L6.72229 17.217L13.0565 23.4421Z" fill="#0099EA"/>
</svg>
