<svg width="43" height="40" viewBox="0 0 43 40" fill="none" xmlns="http://www.w3.org/2000/svg">
<path d="M37.8947 12.6224H26.08L28.4442 5.56654C28.8695 4.29242 28.6547 2.87998 27.8653 1.79027C27.0758 0.70056 25.7958 0.0488281 24.4463 0.0488281H21.0526C20.4274 0.0488281 19.8358 0.325447 19.4337 0.803244L9.53895 12.6224H4.21053C1.88842 12.6224 0 14.5022 0 16.8136V35.674C0 37.9855 1.88842 39.8652 4.21053 39.8652H32.2253C33.0819 39.8624 33.9174 39.6008 34.6215 39.1152C35.3256 38.6295 35.865 37.9425 36.1684 37.1451L41.9726 21.7404C42.0608 21.5051 42.1057 21.2559 42.1053 21.0048V16.8136C42.1053 14.5022 40.2168 12.6224 37.8947 12.6224ZM4.21053 16.8136H8.42105V35.674H4.21053V16.8136ZM37.8947 20.6255L32.2253 35.674H12.6316V15.4766L22.0379 4.24003H24.4505L21.1621 14.0537C21.0554 14.3687 21.0256 14.7045 21.0752 15.0333C21.1249 15.362 21.2526 15.6742 21.4477 15.944C21.6428 16.2138 21.8997 16.4335 22.1972 16.5847C22.4946 16.7359 22.8239 16.8144 23.1579 16.8136H37.8947V20.6255Z" fill="#0099EA"/>
</svg>
