<svg width="26" height="26" viewBox="0 0 26 26" fill="none" xmlns="http://www.w3.org/2000/svg">
<path fill-rule="evenodd" clip-rule="evenodd" d="M13 26C20.1797 26 26 20.1797 26 13C26 5.8203 20.1797 0 13 0C5.8203 0 0 5.8203 0 13C0 20.1797 5.8203 26 13 26ZM14.2722 20.5487C14.8993 20.8445 15.5944 21 16.296 21C18.8898 21 21 18.9154 21 16.3531C21 15.6997 20.8672 15.0729 20.6047 14.4866C20.6823 14.0665 20.7188 13.6123 20.7188 13.0768C20.7188 11.0555 19.9246 9.15857 18.4824 7.73535C17.0421 6.31409 15.123 5.53125 13.0787 5.53125C12.6683 5.53125 12.3196 5.55054 12.0009 5.59155C11.3011 5.20386 10.5123 5 9.70496 5C7.1106 5 5 7.08459 5 9.64685C5 10.3944 5.18237 11.1298 5.5293 11.7886C5.44666 12.2461 5.40625 12.6696 5.40625 13.0765C5.40625 17.256 8.84814 20.6562 13.0787 20.6562C13.4427 20.6562 13.8263 20.6218 14.2722 20.5487ZM14.6616 19.3459L14.4696 19.2439L14.2559 19.283C13.7949 19.3671 13.4209 19.4062 13.0787 19.4062C9.53735 19.4062 6.65625 16.5668 6.65625 13.0765C6.65625 12.6874 6.70276 12.2728 6.79858 11.8091L6.84766 11.5709L6.72302 11.3622C6.41357 10.8442 6.25 10.2511 6.25 9.64685C6.25 7.7738 7.79993 6.25 9.70496 6.25C10.3583 6.25 10.9945 6.43079 11.5448 6.77283L11.7457 6.89771L11.979 6.85828C12.2894 6.80566 12.6388 6.78125 13.0787 6.78125C16.6022 6.78125 19.4688 9.60547 19.4688 13.0768C19.4688 13.6111 19.4281 14.0409 19.3408 14.4296L19.2916 14.6488L19.3932 14.8492C19.63 15.316 19.75 15.822 19.75 16.3531C19.75 18.2262 18.2006 19.75 16.296 19.75C15.7236 19.75 15.1584 19.6102 14.6616 19.3459ZM16.7655 13.5658C16.9425 13.8785 17.0312 14.265 17.0312 14.7145C17.0306 15.2515 16.8768 15.7408 16.5721 16.1689C16.2686 16.5959 15.8207 16.934 15.2397 17.1733C14.6653 17.4105 13.9753 17.5312 13.1914 17.5312C12.2494 17.5312 11.4591 17.3669 10.8436 17.0416C10.403 16.8052 10.0388 16.4841 9.76453 16.089C9.48499 15.6906 9.34375 15.2942 9.34375 14.9117C9.34375 14.6732 9.43591 14.4657 9.61694 14.2963C9.79712 14.1288 10.0275 14.0312 10.3015 14.0312C10.5266 14.0312 10.7211 14.1108 10.8792 14.2434C11.031 14.3704 11.1595 14.5592 11.2633 14.8016C11.3795 15.0668 11.5061 15.2889 11.641 15.4659C11.7688 15.6343 11.9541 15.7775 12.1907 15.8877C12.4283 16.0001 12.7485 16.0312 13.1433 16.0312C13.6854 16.0312 14.1294 15.9418 14.4633 15.7151C14.7898 15.4937 14.9592 15.2267 14.9592 14.9012C14.9592 14.6438 14.8663 14.4414 14.6968 14.2834C14.5177 14.1172 14.2811 13.9879 13.9965 13.8999C13.698 13.8077 13.2931 13.7081 12.7927 13.603C12.1122 13.4579 11.5345 13.2864 11.0751 13.0924C10.6039 12.8932 10.2253 12.6178 9.94775 12.2733C9.66626 11.9226 9.5 11.4841 9.5 10.967C9.5 10.4742 9.67371 10.0303 9.96985 9.64795C10.262 9.26868 10.691 8.97192 11.2427 8.76953C11.786 8.56921 12.4338 8.46875 13.1656 8.46875C13.7516 8.46875 14.2668 8.5354 14.697 8.66907C15.1284 8.80249 15.4935 8.98254 15.7794 9.2052C16.0684 9.42981 16.2817 9.66907 16.4169 9.91821C16.553 10.1694 16.6562 10.4194 16.6562 10.661C16.6562 10.8939 16.532 11.1058 16.353 11.2903C16.1741 11.4757 15.9469 11.5625 15.6799 11.5625C15.4371 11.5625 15.2466 11.5106 15.1146 11.3951C14.9919 11.2872 14.8645 11.1187 14.723 10.877C14.5598 10.5675 14.3619 10.3239 14.1348 10.1532C13.9148 9.98694 13.5453 9.9187 13.0398 9.9187C12.5698 9.9187 12.1877 9.99536 11.9042 10.1807C11.6301 10.3588 11.4688 10.5631 11.4688 10.8057C11.4688 10.9541 11.5399 11.0779 11.6278 11.1851C11.722 11.2974 11.853 11.3969 12.0194 11.4795C12.192 11.5652 12.369 11.6343 12.547 11.683C12.7291 11.7329 13.0347 11.808 13.4546 11.9044C13.9852 12.0178 14.473 12.1438 14.9044 12.2806C15.3408 12.4203 15.7186 12.5909 16.0265 12.7902C16.3396 12.9937 16.5885 13.2544 16.7655 13.5658Z" fill="#2BB6FF"/>
</svg>
