<svg width="11" height="16" viewBox="0 0 11 16" fill="none" xmlns="http://www.w3.org/2000/svg">
<path d="M5.15625 0.995605H1.28906C0.947182 0.995605 0.619304 1.1273 0.377558 1.36172C0.135812 1.59614 0 1.91408 0 2.24561V14.7456C0 15.0771 0.135812 15.3951 0.377558 15.6295C0.619304 15.8639 0.947182 15.9956 1.28906 15.9956C1.63094 15.9956 1.95882 15.8639 2.20057 15.6295C2.44231 15.3951 2.57812 15.0771 2.57812 14.7456V10.9956H5.15625C6.52377 10.9956 7.83529 10.4688 8.80227 9.53114C9.76925 8.59346 10.3125 7.32169 10.3125 5.99561C10.3125 4.66952 9.76925 3.39775 8.80227 2.46007C7.83529 1.52239 6.52377 0.995605 5.15625 0.995605ZM5.15625 8.49561H2.57812V3.49561H5.15625C5.84001 3.49561 6.49577 3.759 6.97926 4.22784C7.46275 4.69668 7.73438 5.33256 7.73438 5.99561C7.73438 6.65865 7.46275 7.29453 6.97926 7.76337C6.49577 8.23221 5.84001 8.49561 5.15625 8.49561Z" fill="#777777"/>
</svg>
