<svg width="18" height="17" viewBox="0 0 18 17" fill="none" xmlns="http://www.w3.org/2000/svg">
<path fill-rule="evenodd" clip-rule="evenodd" d="M1.74414 7.45869C1.74414 4.04859 4.58304 1.2627 8.11182 1.2627C11.6406 1.2627 14.4795 4.04859 14.4795 7.45869C14.4795 10.8688 11.6406 13.6547 8.11182 13.6547C4.58304 13.6547 1.74414 10.8688 1.74414 7.45869ZM8.11182 0.262695C4.05477 0.262695 0.744141 3.47259 0.744141 7.45869C0.744141 11.4448 4.05477 14.6547 8.11182 14.6547C9.96334 14.6547 11.6594 13.9861 12.9563 12.8804L16.5926 16.4259C16.7903 16.6186 17.1069 16.6146 17.2996 16.4169C17.4924 16.2192 17.4884 15.9026 17.2907 15.7099L13.6715 12.181C14.7968 10.9189 15.4795 9.26884 15.4795 7.45869C15.4795 3.47259 12.1689 0.262695 8.11182 0.262695Z" fill="#BFBFBF"/>
</svg>
